<svg width="40" height="40" viewBox="0 0 40 40" fill="none" xmlns="http://www.w3.org/2000/svg">
<rect width="40" height="40" rx="5" fill="#21589A"/>
<path d="M17.3302 31.3636V20.9126H14.5454V17.1498H17.3302V13.9358C17.3302 11.4102 18.9753 9.09091 22.7657 9.09091C24.3004 9.09091 25.4353 9.23691 25.4353 9.23691L25.3458 12.7508C25.3458 12.7508 24.1885 12.7396 22.9255 12.7396C21.5586 12.7396 21.3396 13.3647 21.3396 14.4022V17.1498H25.4545L25.2755 20.9126H21.3396V31.3636H17.3302Z" fill="white"/>
</svg>
