<svg width="84" height="84" viewBox="0 0 84 84" fill="none" xmlns="http://www.w3.org/2000/svg">
<path d="M42 0C18.8412 0 0 18.8412 0 42C0 65.1588 18.8412 84 42 84C65.1588 84 84 65.1588 84 42C84 18.8412 65.1588 0 42 0ZM66.15 46.2H37.8V16.8H46.2V37.8H66.15V46.2Z" fill="#1E70E7"/>
<path d="M42 0C18.8412 0 0 18.8412 0 42C0 65.1588 18.8412 84 42 84C65.1588 84 84 65.1588 84 42C84 18.8412 65.1588 0 42 0ZM66.15 46.2H37.8V16.8H46.2V37.8H66.15V46.2Z" fill="#1B68E3"/>
</svg>
