<svg width="17" height="17" viewBox="0 0 17 17" fill="none" xmlns="http://www.w3.org/2000/svg">
<path d="M0 2L2 0L17 14.9094L14.9094 17L0 2Z" fill="#6F6F6F"/>
<path d="M15 0L17 2L2 17L0 15L15 0Z" fill="#6F6F6F"/>
</svg>
